@startuml class-diagram.png
skinparam handwritten true
skinparam monochrome true
skinparam packageStyle rect
skinparam defaultFontName FG Virgil
skinparam shadowing false
  
class CalculatorApp {
  public start()
  public static main()

  private isOperationNeedExternalOperator()
  private getOperation()∏
  private getOperand()
}
class Calculator {
private accumulator

public doOperation()
private computeFactorial()
}

CalculatorApp *-> Calculator

@enduml
