@startuml class-diagram.png
skinparam handwritten true
skinparam monochrome true
skinparam packageStyle rect
skinparam defaultFontName FG Virgil
skinparam shadowing false

actor User
participant ContactsView
participant ContactsPresenter
participant ContactsServiceImpl


User ->> ContactsView : Starts the 'delete contact' use case
ContactsView ->> ContactsPresenter : fetchContactDetails()
ContactsPresenter ->> ContactsServiceImpl : getContactDetails()

ContactsServiceImpl --> ContactsPresenter : returns contacts
ContactsPresenter --> ContactsView : returns contacts
ContactsView --> User : displays contacts

User ->> ContactsView : selects user(s) and presses the button to delete
ContactsView ->> ContactsPresenter : deleteSelectedContacts()
ContactsPresenter ->> ContactsServiceImpl : deleteContacts(ArrayList<ContactDetails>)
ContactsServiceImpl --> ContactsPresenter : returns contacts
ContactsPresenter ->> ContactsPresenter : sortContactDetails()
ContactsPresenter --> ContactsView : returns contacts
ContactsView --> User : "User has been deleted successfully"

@enduml
